{
  apps: [{
    name: 'Wallet',
    script: './walletd',
    watch: false,
    args: '--bind-address 172.31.0.5 --daemon-address 172.31.0.5 --daemon-port 44533 --bind-port 44534 --container-password Cxsnp39kzTrxF7k8zcdCExZqeZJnPBfgjR8gisGbTCsg91looN --container-file /root/wallets/krb-pool.wallet'
  }, {
    name: 'Daemon',
    script: './karbowanecd',
    watch: false,
    args: '--rpc-bind-ip 172.31.0.5 --rpc-bind-port 44533 --restricted-rpc'
}]

}
