{
  "pool_id": 0,
  "bind_ip": "0.0.0.0",
  "hostname": "sumo.megabyte.space",
  "db_storage_path": "/data/db/lmdb",
  "coin": "sumo",
  "mysql": {
    "connectionLimit": 10,
    "host": "sumodb",
    "database": "pool",
    "user": "pool",
    "password": "1t3cQNhBcKS9JI8vNr1mjJvCaad21s"
  }
}
